{
  "name": "api-types",
  "$schema": "../../node_modules/nx/schemas/project-schema.json",
  "sourceRoot": "libs/api-types/src",
  "projectType": "library",
  "targets": {
    "lint": {
      "executor": "@nrwl/linter:eslint",
      "options": {
        "lintFilePatterns": ["libs/api-types/**/*.ts"]
      },
      "outputs": ["{options.outputFile}"]
    },
    "test": {
      "executor": "@nrwl/jest:jest",
      "outputs": ["{workspaceRoot}/coverage/libs/api-types"],
      "options": {
        "jestConfig": "libs/api-types/jest.config.ts",
        "passWithNoTests": true
      }
    }
  },
  "tags": []
}
